light/simulation/qsim/light.msim.vcd
$comment
	File created using the following command:
		vcd file light.msim.vcd -direction
$end
$date
	Fri Feb 11 16:23:38 2022
$end
$version
	ModelSim Version 2020.1
$end
$timescale
	1ps
$end

$scope module light_vlg_vec_tst $end
$var reg 1 ! b $end
$var reg 1 " clk $end
$var reg 1 # l $end
$var reg 1 $ r $end
$var wire 1 % al $end
$var wire 1 & l1o $end
$var wire 1 ' l2o $end
$var wire 1 ( l3o $end
$var wire 1 ) l4o $end
$var wire 1 * r1o $end
$var wire 1 + r2o $end
$var wire 1 , r3o $end
$var wire 1 - r4o $end

$scope module i1 $end
$var wire 1 . gnd $end
$var wire 1 / vcc $end
$var wire 1 0 unknown $end
$var tri1 1 1 devclrn $end
$var tri1 1 2 devpor $end
$var tri1 1 3 devoe $end
$var wire 1 4 ~QUARTUS_CREATED_GND~I_combout $end
$var wire 1 5 l~input_o $end
$var wire 1 6 r~input_o $end
$var wire 1 7 clk~input_o $end
$var wire 1 8 clk~inputCLKENA0_outclk $end
$var wire 1 9 inst44|inst3~combout $end
$var wire 1 : inst29|inst24|inst1~q $end
$var wire 1 ; inst44|inst7~combout $end
$var wire 1 < inst29|inst24|inst~q $end
$var wire 1 = inst29|inst22~combout $end
$var wire 1 > inst29|inst1~DUPLICATE_q $end
$var wire 1 ? inst29|inst13~0_combout $end
$var wire 1 @ inst29|inst2~q $end
$var wire 1 A inst29|inst8~combout $end
$var wire 1 B inst29|inst~q $end
$var wire 1 C inst29|inst2~DUPLICATE_q $end
$var wire 1 D inst29|inst12~combout $end
$var wire 1 E inst29|inst1~q $end
$var wire 1 F inst29|inst~DUPLICATE_q $end
$var wire 1 G inst28~0_combout $end
$var wire 1 H b~input_o $end
$var wire 1 I inst7~combout $end
$var wire 1 J inst44|inst2~combout $end
$var wire 1 K inst2~q $end
$var wire 1 L inst28~1_combout $end
$var wire 1 M inst27~0_combout $end
$var wire 1 N inst23~0_combout $end
$var wire 1 O inst26~0_combout $end
$var wire 1 P inst24~0_combout $end
$var wire 1 Q inst25~0_combout $end
$var wire 1 R inst23~1_combout $end
$var wire 1 S inst22~0_combout $end
$var wire 1 T inst21~0_combout $end
$var wire 1 U inst24~1_combout $end
$var wire 1 V inst29|inst24|inst2~combout $end
$upscope $end
$upscope $end
$enddefinitions $end
#0
$dumpvars
0!
0"
0#
0$
1%
0&
0'
0(
0)
0*
0+
0,
0-
0.
1/
x0
11
12
13
04
05
06
07
08
09
0:
0;
0<
1=
0>
1?
0@
0A
0B
0C
0D
0E
0F
1G
0H
0I
1J
0K
0L
0M
1N
0O
0P
0Q
0R
0S
0T
0U
0V
$end
#10000
1!
1"
1H
17
18
1U
1T
1S
1R
1Q
1O
1M
1L
1)
1(
1'
1&
1,
1+
1*
1-
#20000
1$
0"
16
07
08
0=
0U
0T
0S
0R
1;
0,
0+
0*
0-
#30000
1"
17
18
1C
1@
1<
0N
1P
0G
1A
1S
1+
1T
1U
1R
1,
1-
1*
#40000
0"
07
08
#50000
1"
17
18
1F
1B
0P
0?
0U
0-
#60000
0"
07
08
#70000
1"
17
18
0C
0@
1N
0A
1D
0R
0,
#80000
0"
07
08
#90000
1"
17
18
0F
1E
0B
1>
1A
0S
0+
#100000
0"
07
08
#110000
1"
17
18
1F
1B
1P
0N
0D
0A
1S
1+
1R
1U
1-
1,
#120000
0"
07
08
#130000
1"
17
18
0F
0E
0B
0>
0P
1N
1G
1?
0S
0+
0T
0R
0U
0-
0,
0*
#140000
0"
07
08
#150000
1"
17
18
1C
1@
0N
1P
0G
1A
1S
1+
1T
1U
1R
1,
1-
1*
#160000
1#
0!
0$
0"
15
0H
06
07
08
1V
1=
19
0U
0T
0S
0R
0;
0,
0+
0*
0-
0%
0@
0C
0P
1G
1N
0M
0A
0(
0O
0L
0Q
0&
0)
0'
#170000
1"
17
18
0<
1:
0V
0=
1%
#180000
0"
07
08
#190000
1"
17
18
1C
1@
0N
1P
0G
1A
1M
1(
1L
1Q
1O
1'
1&
1)
#200000
0"
07
08
#210000
1"
17
18
1F
1B
0P
0?
0Q
0&
#220000
0"
07
08
#230000
1"
17
18
0C
0@
1N
0A
1D
0O
0'
#240000
0"
07
08
#250000
1"
17
18
0F
1E
0B
1>
1A
0M
0(
#260000
0"
07
08
#270000
1"
17
18
1F
1B
1P
0N
0D
0A
1M
1(
1O
1Q
1&
1'
#280000
0"
07
08
#290000
1"
17
18
0F
0E
0B
0>
0P
1N
1G
1?
0M
0(
0L
0O
0Q
0&
0'
0)
#300000
0"
07
08
#310000
1"
17
18
1C
1@
0N
1P
0G
1A
1M
1(
1L
1Q
1O
1'
1&
1)
#320000
0"
07
08
#330000
0#
05
1=
09
0Q
0O
0M
0L
0)
0(
0'
0&
0@
0C
0P
1G
1N
0A
#420000
1!
1"
1H
17
18
1U
1T
1S
1R
1Q
1O
1M
1L
1)
1(
1'
1&
1,
1+
1*
1-
0:
#430000
1$
1#
0!
0"
16
15
0H
07
08
0J
1I
#440000
1"
17
18
1K
0U
0T
0S
0R
0Q
0O
0M
0L
0I
0)
0(
0'
0&
0,
0+
0*
0-
#450000
0"
07
08
#460000
1"
17
18
0K
1U
1T
1S
1R
1Q
1O
1M
1L
1I
1)
1(
1'
1&
1,
1+
1*
1-
#470000
0"
07
08
#480000
1"
17
18
1K
0U
0T
0S
0R
0Q
0O
0M
0L
0I
0)
0(
0'
0&
0,
0+
0*
0-
#490000
0$
0#
0"
06
05
07
08
1J
0K
#730000
1"
17
18
#780000
0"
07
08
